<svg xmlns="http://www.w3.org/2000/svg" xmlns:xlink="http://www.w3.org/1999/xlink" width="260.859" height="288.704" viewBox="0 0 260.859 288.704">
  <defs>
    <linearGradient id="linear-gradient" x1="0.5" x2="0.5" y2="1" gradientUnits="objectBoundingBox">
      <stop offset="0" stop-color="#82ce75"/>
      <stop offset="1" stop-color="#375332"/>
    </linearGradient>
    <linearGradient id="linear-gradient-2" x1="0.5" x2="0.5" y2="1" gradientUnits="objectBoundingBox">
      <stop offset="0" stop-color="#82ce75"/>
      <stop offset="1" stop-color="#375831"/>
    </linearGradient>
    <linearGradient id="linear-gradient-3" x1="0.5" x2="0.5" y2="1" gradientUnits="objectBoundingBox">
      <stop offset="0" stop-color="#75c068"/>
      <stop offset="1" stop-color="#9ad191"/>
    </linearGradient>
    <linearGradient id="linear-gradient-4" x1="0.5" x2="0.5" y2="1" gradientUnits="objectBoundingBox">
      <stop offset="0" stop-color="#6f926a"/>
      <stop offset="1" stop-color="#384935"/>
    </linearGradient>
  </defs>
  <g id="Group_82" data-name="Group 82" transform="translate(-805 -261)">
    <path id="Path_1" data-name="Path 1" d="M612.041,400.5v21.573L741.906,537.428v-23.2" transform="translate(193.638 12.276)" fill="#cbad85"/>
    <path id="Path_2" data-name="Path 2" d="M707.584,537.722,837.9,423.264V400.41L707.584,514.869Z" transform="translate(227.96 11.982)" fill="#b09877"/>
    <g id="Group_2" data-name="Group 2" transform="matrix(1, 0.017, -0.017, 1, 811.477, 428.066)">
      <ellipse id="Ellipse_9" data-name="Ellipse 9" cx="4.099" cy="2.05" rx="4.099" ry="2.05" transform="matrix(0.766, 0.643, -0.643, 0.766, 2.635, 0)" fill="#847055"/>
      <ellipse id="Ellipse_11" data-name="Ellipse 11" cx="4.099" cy="2.05" rx="4.099" ry="2.05" transform="matrix(0.766, 0.643, -0.643, 0.766, 26.199, 18.512)" fill="#847055"/>
      <ellipse id="Ellipse_13" data-name="Ellipse 13" cx="4.099" cy="2.05" rx="4.099" ry="2.05" transform="matrix(0.766, 0.643, -0.643, 0.766, 51.363, 39.627)" fill="#847055"/>
      <ellipse id="Ellipse_15" data-name="Ellipse 15" cx="4.099" cy="2.05" rx="4.099" ry="2.05" transform="matrix(0.766, 0.643, -0.643, 0.766, 76.527, 60.741)" fill="#847055"/>
      <ellipse id="Ellipse_17" data-name="Ellipse 17" cx="4.099" cy="2.05" rx="4.099" ry="2.05" transform="matrix(0.766, 0.643, -0.643, 0.766, 103.052, 81.737)" fill="#847055"/>
      <ellipse id="Ellipse_10" data-name="Ellipse 10" cx="6.149" cy="2.733" rx="6.149" ry="2.733" transform="matrix(0.766, 0.643, -0.643, 0.766, 11.39, 10.608)" fill="#847055"/>
      <ellipse id="Ellipse_12" data-name="Ellipse 12" cx="6.149" cy="2.733" rx="6.149" ry="2.733" transform="matrix(0.766, 0.643, -0.643, 0.766, 34.955, 29.12)" fill="#847055"/>
      <ellipse id="Ellipse_14" data-name="Ellipse 14" cx="6.149" cy="2.733" rx="6.149" ry="2.733" transform="matrix(0.766, 0.643, -0.643, 0.766, 60.119, 50.235)" fill="#847055"/>
      <ellipse id="Ellipse_16" data-name="Ellipse 16" cx="6.149" cy="2.733" rx="6.149" ry="2.733" transform="matrix(0.766, 0.643, -0.643, 0.766, 85.282, 71.35)" fill="#847055"/>
      <ellipse id="Ellipse_18" data-name="Ellipse 18" cx="6.149" cy="2.733" rx="6.149" ry="2.733" transform="matrix(0.766, 0.643, -0.643, 0.766, 111.807, 92.345)" fill="#847055"/>
    </g>
    <g id="Group_1" data-name="Group 1" transform="matrix(0.999, 0.035, -0.035, 0.999, 947.368, 421.758)">
      <ellipse id="Ellipse_20" data-name="Ellipse 20" cx="4.099" cy="2.05" rx="4.099" ry="2.05" transform="translate(0 109.404) rotate(-45)" fill="#847055"/>
      <ellipse id="Ellipse_22" data-name="Ellipse 22" cx="4.099" cy="2.05" rx="4.099" ry="2.05" transform="translate(23.228 86.176) rotate(-45)" fill="#847055"/>
      <ellipse id="Ellipse_24" data-name="Ellipse 24" cx="4.099" cy="2.05" rx="4.099" ry="2.05" transform="translate(45.089 62.949) rotate(-45)" fill="#847055"/>
      <ellipse id="Ellipse_26" data-name="Ellipse 26" cx="4.099" cy="2.05" rx="4.099" ry="2.05" transform="translate(68.317 39.721) rotate(-45)" fill="#847055"/>
      <ellipse id="Ellipse_28" data-name="Ellipse 28" cx="4.099" cy="2.05" rx="4.099" ry="2.05" transform="translate(91.544 16.493) rotate(-45)" fill="#847055"/>
      <ellipse id="Ellipse_19" data-name="Ellipse 19" cx="6.149" cy="2.733" rx="6.149" ry="2.733" transform="translate(11.331 101.606) rotate(-45)" fill="#847055"/>
      <ellipse id="Ellipse_21" data-name="Ellipse 21" cx="6.149" cy="2.733" rx="6.149" ry="2.733" transform="translate(34.559 78.378) rotate(-45)" fill="#847055"/>
      <ellipse id="Ellipse_23" data-name="Ellipse 23" cx="6.149" cy="2.733" rx="6.149" ry="2.733" transform="translate(56.42 55.151) rotate(-45)" fill="#847055"/>
      <ellipse id="Ellipse_25" data-name="Ellipse 25" cx="6.149" cy="2.733" rx="6.149" ry="2.733" transform="translate(79.648 31.923) rotate(-45)" fill="#847055"/>
      <ellipse id="Ellipse_27" data-name="Ellipse 27" cx="6.149" cy="2.733" rx="6.149" ry="2.733" transform="translate(102.875 8.695) rotate(-45)" fill="#847055"/>
    </g>
    <path id="Path_8" data-name="Path 8" d="M450.806,206.967c1.905,3.1,12.384,14.05,8.1,21.671s10.955,19.528,22.147,16.432,30.244-33.816,41.913-28.815,17.385-22.624,6.43-28.577-28.1-12.622-31.2-5.239-5.954,16.432-17.146,9.526-23.576-4.763-24.767,1.429S448.9,203.871,450.806,206.967Z" transform="translate(451.51 238.883)" fill="#67b1e2"/>
    <path id="Path_9" data-name="Path 9" d="M450.734,201.43c1.526,2.479,9.915,11.25,6.483,17.352s8.771,15.636,17.733,13.157,24.217-27.077,33.56-23.072,13.92-18.115,5.148-22.882-22.5-10.106-24.979-4.2-4.767,13.157-13.729,7.627-18.878-3.814-19.831,1.144S449.209,198.951,450.734,201.43Z" transform="translate(461.792 244.125)" fill="#7eb9e1"/>
    <path id="Path_10" data-name="Path 10" d="M450.651,195.08c1.09,1.771,7.085,8.039,4.633,12.4s6.268,11.173,12.672,9.4,17.3-19.349,23.981-16.487,9.947-12.945,3.679-16.351-16.078-7.222-17.85-3-3.406,9.4-9.811,5.45-13.49-2.725-14.171.818S449.561,193.309,450.651,195.08Z" transform="translate(471.941 251.253)" fill="#93c6e8"/>
    <path id="Icon_awesome-tree" data-name="Icon awesome-tree" d="M37.969,37.987l-8.018-9.082h3.074a2.281,2.281,0,0,0,2.086-1.311,2.213,2.213,0,0,0-.329-2.414L26.94,16.059h2.9a2.274,2.274,0,0,0,2.094-1.366,2.233,2.233,0,0,0-.426-2.417L20.44.485a1.653,1.653,0,0,0-2.341,0L7.031,12.276a2.235,2.235,0,0,0-.426,2.417A2.275,2.275,0,0,0,8.7,16.059h2.9L3.758,25.183A2.216,2.216,0,0,0,3.429,27.6a2.28,2.28,0,0,0,2.086,1.31H8.589L.571,37.987a2.219,2.219,0,0,0-.357,2.435,2.328,2.328,0,0,0,2.109,1.33H16.058v2.454l-3.04,4.858a1.606,1.606,0,0,0,1.436,2.324h9.631a1.606,1.606,0,0,0,1.436-2.324l-3.04-4.858V41.752H36.218a2.328,2.328,0,0,0,2.109-1.33A2.219,2.219,0,0,0,37.969,37.987Z" transform="translate(1020.502 344.472)" fill="#6da564"/>
    <path id="Icon_awesome-tree-2" data-name="Icon awesome-tree" d="M37.969,37.987l-8.018-9.082h3.074a2.281,2.281,0,0,0,2.086-1.311,2.213,2.213,0,0,0-.329-2.414L26.94,16.059h2.9a2.274,2.274,0,0,0,2.094-1.366,2.233,2.233,0,0,0-.426-2.417L20.44.485a1.653,1.653,0,0,0-2.341,0L7.031,12.276a2.235,2.235,0,0,0-.426,2.417A2.275,2.275,0,0,0,8.7,16.059h2.9L3.758,25.183A2.216,2.216,0,0,0,3.429,27.6a2.28,2.28,0,0,0,2.086,1.31H8.589L.571,37.987a2.219,2.219,0,0,0-.357,2.435,2.328,2.328,0,0,0,2.109,1.33H16.058v2.454l-3.04,4.858a1.606,1.606,0,0,0,1.436,2.324h9.631a1.606,1.606,0,0,0,1.436-2.324l-3.04-4.858V41.752H36.218a2.328,2.328,0,0,0,2.109-1.33A2.219,2.219,0,0,0,37.969,37.987Z" transform="translate(967.215 344.472)" fill="url(#linear-gradient)"/>
    <path id="Icon_awesome-tree-3" data-name="Icon awesome-tree" d="M37.969,37.987l-8.018-9.082h3.074a2.281,2.281,0,0,0,2.086-1.311,2.213,2.213,0,0,0-.329-2.414L26.94,16.059h2.9a2.274,2.274,0,0,0,2.094-1.366,2.233,2.233,0,0,0-.426-2.417L20.44.485a1.653,1.653,0,0,0-2.341,0L7.031,12.276a2.235,2.235,0,0,0-.426,2.417A2.275,2.275,0,0,0,8.7,16.059h2.9L3.758,25.183A2.216,2.216,0,0,0,3.429,27.6a2.28,2.28,0,0,0,2.086,1.31H8.589L.571,37.987a2.219,2.219,0,0,0-.357,2.435,2.328,2.328,0,0,0,2.109,1.33H16.058v2.454l-3.04,4.858a1.606,1.606,0,0,0,1.436,2.324h9.631a1.606,1.606,0,0,0,1.436-2.324l-3.04-4.858V41.752H36.218a2.328,2.328,0,0,0,2.109-1.33A2.219,2.219,0,0,0,37.969,37.987Z" transform="translate(860.641 344.472)" fill="url(#linear-gradient-2)"/>
    <path id="Icon_awesome-tree-4" data-name="Icon awesome-tree" d="M37.969,37.987l-8.018-9.082h3.074a2.281,2.281,0,0,0,2.086-1.311,2.213,2.213,0,0,0-.329-2.414L26.94,16.059h2.9a2.274,2.274,0,0,0,2.094-1.366,2.233,2.233,0,0,0-.426-2.417L20.44.485a1.653,1.653,0,0,0-2.341,0L7.031,12.276a2.235,2.235,0,0,0-.426,2.417A2.275,2.275,0,0,0,8.7,16.059h2.9L3.758,25.183A2.216,2.216,0,0,0,3.429,27.6a2.28,2.28,0,0,0,2.086,1.31H8.589L.571,37.987a2.219,2.219,0,0,0-.357,2.435,2.328,2.328,0,0,0,2.109,1.33H16.058v2.454l-3.04,4.858a1.606,1.606,0,0,0,1.436,2.324h9.631a1.606,1.606,0,0,0,1.436-2.324l-3.04-4.858V41.752H36.218a2.328,2.328,0,0,0,2.109-1.33A2.219,2.219,0,0,0,37.969,37.987Z" transform="translate(915.295 344.472)" fill="#6da564"/>
    <g id="Group_33" data-name="Group 33">
      <path id="Path_14" data-name="Path 14" d="M0,0,162.536,28.841l21.919,155.614L11.816,173.021Z" transform="translate(805 412.776) rotate(-45)" fill="url(#linear-gradient-3)"/>
      <path id="Icon_awesome-tree-5" data-name="Icon awesome-tree" d="M66.421,66.453,52.394,50.566h5.378a3.989,3.989,0,0,0,3.648-2.293,3.87,3.87,0,0,0-.576-4.223L47.127,28.092H52.2a3.978,3.978,0,0,0,3.662-2.39,3.907,3.907,0,0,0-.744-4.228L35.757.849a2.892,2.892,0,0,0-4.094,0L12.3,21.475a3.91,3.91,0,0,0-.744,4.228,3.981,3.981,0,0,0,3.664,2.39h5.072L6.573,44.054A3.876,3.876,0,0,0,6,48.275a3.989,3.989,0,0,0,3.648,2.291h5.378L1,66.453a3.881,3.881,0,0,0-.625,4.259,4.072,4.072,0,0,0,3.689,2.326H28.091v4.293l-5.318,8.5A2.81,2.81,0,0,0,25.286,89.9H42.134a2.81,2.81,0,0,0,2.512-4.066l-5.318-8.5V73.039H63.357a4.072,4.072,0,0,0,3.689-2.326A3.881,3.881,0,0,0,66.421,66.453Z" transform="translate(915.885 265.1)" fill="#3c5239"/>
      <path id="Icon_awesome-tree-6" data-name="Icon awesome-tree" d="M66.421,66.453,52.394,50.566h5.378a3.989,3.989,0,0,0,3.648-2.293,3.87,3.87,0,0,0-.576-4.223L47.127,28.092H52.2a3.978,3.978,0,0,0,3.662-2.39,3.907,3.907,0,0,0-.744-4.228L35.757.849a2.892,2.892,0,0,0-4.094,0L12.3,21.475a3.91,3.91,0,0,0-.744,4.228,3.981,3.981,0,0,0,3.664,2.39h5.072L6.573,44.054A3.876,3.876,0,0,0,6,48.275a3.989,3.989,0,0,0,3.648,2.291h5.378L1,66.453a3.881,3.881,0,0,0-.625,4.259,4.072,4.072,0,0,0,3.689,2.326H28.091v4.293l-5.318,8.5A2.81,2.81,0,0,0,25.286,89.9H42.134a2.81,2.81,0,0,0,2.512-4.066l-5.318-8.5V73.039H63.357a4.072,4.072,0,0,0,3.689-2.326A3.881,3.881,0,0,0,66.421,66.453Z" transform="translate(948.677 265.1)" fill="#3c5239"/>
      <path id="Icon_awesome-tree-7" data-name="Icon awesome-tree" d="M66.421,66.453,52.394,50.566h5.378a3.989,3.989,0,0,0,3.648-2.293,3.87,3.87,0,0,0-.576-4.223L47.127,28.092H52.2a3.978,3.978,0,0,0,3.662-2.39,3.907,3.907,0,0,0-.744-4.228L35.757.849a2.892,2.892,0,0,0-4.094,0L12.3,21.475a3.91,3.91,0,0,0-.744,4.228,3.981,3.981,0,0,0,3.664,2.39h5.072L6.573,44.054A3.876,3.876,0,0,0,6,48.275a3.989,3.989,0,0,0,3.648,2.291h5.378L1,66.453a3.881,3.881,0,0,0-.625,4.259,4.072,4.072,0,0,0,3.689,2.326H28.091v4.293l-5.318,8.5A2.81,2.81,0,0,0,25.286,89.9H42.134a2.81,2.81,0,0,0,2.512-4.066l-5.318-8.5V73.039H63.357a4.072,4.072,0,0,0,3.689-2.326A3.881,3.881,0,0,0,66.421,66.453Z" transform="translate(918.617 280.129)" fill="#476d41"/>
      <path id="Icon_awesome-tree-8" data-name="Icon awesome-tree" d="M66.421,66.453,52.394,50.566h5.378a3.989,3.989,0,0,0,3.648-2.293,3.87,3.87,0,0,0-.576-4.223L47.127,28.092H52.2a3.978,3.978,0,0,0,3.662-2.39,3.907,3.907,0,0,0-.744-4.228L35.757.849a2.892,2.892,0,0,0-4.094,0L12.3,21.475a3.91,3.91,0,0,0-.744,4.228,3.981,3.981,0,0,0,3.664,2.39h5.072L6.573,44.054A3.876,3.876,0,0,0,6,48.275a3.989,3.989,0,0,0,3.648,2.291h5.378L1,66.453a3.881,3.881,0,0,0-.625,4.259,4.072,4.072,0,0,0,3.689,2.326H28.091v4.293l-5.318,8.5A2.81,2.81,0,0,0,25.286,89.9H42.134a2.81,2.81,0,0,0,2.512-4.066l-5.318-8.5V73.039H63.357a4.072,4.072,0,0,0,3.689-2.326A3.881,3.881,0,0,0,66.421,66.453Z" transform="translate(881.726 261.001)" fill="#476d41"/>
      <path id="Icon_awesome-tree-9" data-name="Icon awesome-tree" d="M66.421,66.453,52.394,50.566h5.378a3.989,3.989,0,0,0,3.648-2.293,3.87,3.87,0,0,0-.576-4.223L47.127,28.092H52.2a3.978,3.978,0,0,0,3.662-2.39,3.907,3.907,0,0,0-.744-4.228L35.757.849a2.892,2.892,0,0,0-4.094,0L12.3,21.475a3.91,3.91,0,0,0-.744,4.228,3.981,3.981,0,0,0,3.664,2.39h5.072L6.573,44.054A3.876,3.876,0,0,0,6,48.275a3.989,3.989,0,0,0,3.648,2.291h5.378L1,66.453a3.881,3.881,0,0,0-.625,4.259,4.072,4.072,0,0,0,3.689,2.326H28.091v4.293l-5.318,8.5A2.81,2.81,0,0,0,25.286,89.9H42.134a2.81,2.81,0,0,0,2.512-4.066l-5.318-8.5V73.039H63.357a4.072,4.072,0,0,0,3.689-2.326A3.881,3.881,0,0,0,66.421,66.453Z" transform="translate(945.944 293.793)" fill="#425f3d"/>
      <path id="Icon_awesome-tree-10" data-name="Icon awesome-tree" d="M66.421,66.453,52.394,50.566h5.378a3.989,3.989,0,0,0,3.648-2.293,3.87,3.87,0,0,0-.576-4.223L47.127,28.092H52.2a3.978,3.978,0,0,0,3.662-2.39,3.907,3.907,0,0,0-.744-4.228L35.757.849a2.892,2.892,0,0,0-4.094,0L12.3,21.475a3.91,3.91,0,0,0-.744,4.228,3.981,3.981,0,0,0,3.664,2.39h5.072L6.573,44.054A3.876,3.876,0,0,0,6,48.275a3.989,3.989,0,0,0,3.648,2.291h5.378L1,66.453a3.881,3.881,0,0,0-.625,4.259,4.072,4.072,0,0,0,3.689,2.326H28.091v4.293l-5.318,8.5A2.81,2.81,0,0,0,25.286,89.9H42.134a2.81,2.81,0,0,0,2.512-4.066l-5.318-8.5V73.039H63.357a4.072,4.072,0,0,0,3.689-2.326A3.881,3.881,0,0,0,66.421,66.453Z" transform="translate(918.617 310.189)" fill="url(#linear-gradient-4)"/>
      <path id="Icon_awesome-tree-11" data-name="Icon awesome-tree" d="M66.421,66.453,52.394,50.566h5.378a3.989,3.989,0,0,0,3.648-2.293,3.87,3.87,0,0,0-.576-4.223L47.127,28.092H52.2a3.978,3.978,0,0,0,3.662-2.39,3.907,3.907,0,0,0-.744-4.228L35.757.849a2.892,2.892,0,0,0-4.094,0L12.3,21.475a3.91,3.91,0,0,0-.744,4.228,3.981,3.981,0,0,0,3.664,2.39h5.072L6.573,44.054A3.876,3.876,0,0,0,6,48.275a3.989,3.989,0,0,0,3.648,2.291h5.378L1,66.453a3.881,3.881,0,0,0-.625,4.259,4.072,4.072,0,0,0,3.689,2.326H28.091v4.293l-5.318,8.5A2.81,2.81,0,0,0,25.286,89.9H42.134a2.81,2.81,0,0,0,2.512-4.066l-5.318-8.5V73.039H63.357a4.072,4.072,0,0,0,3.689-2.326A3.881,3.881,0,0,0,66.421,66.453Z" transform="translate(971.904 310.189)" fill="#6f926a"/>
      <path id="Icon_awesome-tree-12" data-name="Icon awesome-tree" d="M66.421,66.453,52.394,50.566h5.378a3.989,3.989,0,0,0,3.648-2.293,3.87,3.87,0,0,0-.576-4.223L47.127,28.092H52.2a3.978,3.978,0,0,0,3.662-2.39,3.907,3.907,0,0,0-.744-4.228L35.757.849a2.892,2.892,0,0,0-4.094,0L12.3,21.475a3.91,3.91,0,0,0-.744,4.228,3.981,3.981,0,0,0,3.664,2.39h5.072L6.573,44.054A3.876,3.876,0,0,0,6,48.275a3.989,3.989,0,0,0,3.648,2.291h5.378L1,66.453a3.881,3.881,0,0,0-.625,4.259,4.072,4.072,0,0,0,3.689,2.326H28.091v4.293l-5.318,8.5A2.81,2.81,0,0,0,25.286,89.9H42.134a2.81,2.81,0,0,0,2.512-4.066l-5.318-8.5V73.039H63.357a4.072,4.072,0,0,0,3.689-2.326A3.881,3.881,0,0,0,66.421,66.453Z" transform="translate(846.202 285.595)" fill="#3c5239"/>
      <path id="Icon_awesome-tree-13" data-name="Icon awesome-tree" d="M66.421,66.453,52.394,50.566h5.378a3.989,3.989,0,0,0,3.648-2.293,3.87,3.87,0,0,0-.576-4.223L47.127,28.092H52.2a3.978,3.978,0,0,0,3.662-2.39,3.907,3.907,0,0,0-.744-4.228L35.757.849a2.892,2.892,0,0,0-4.094,0L12.3,21.475a3.91,3.91,0,0,0-.744,4.228,3.981,3.981,0,0,0,3.664,2.39h5.072L6.573,44.054A3.876,3.876,0,0,0,6,48.275a3.989,3.989,0,0,0,3.648,2.291h5.378L1,66.453a3.881,3.881,0,0,0-.625,4.259,4.072,4.072,0,0,0,3.689,2.326H28.091v4.293l-5.318,8.5A2.81,2.81,0,0,0,25.286,89.9H42.134a2.81,2.81,0,0,0,2.512-4.066l-5.318-8.5V73.039H63.357a4.072,4.072,0,0,0,3.689-2.326A3.881,3.881,0,0,0,66.421,66.453Z" transform="translate(884.459 293.793)" fill="#3c5239"/>
      <path id="Icon_awesome-tree-14" data-name="Icon awesome-tree" d="M66.421,66.453,52.394,50.566h5.378a3.989,3.989,0,0,0,3.648-2.293,3.87,3.87,0,0,0-.576-4.223L47.127,28.092H52.2a3.978,3.978,0,0,0,3.662-2.39,3.907,3.907,0,0,0-.744-4.228L35.757.849a2.892,2.892,0,0,0-4.094,0L12.3,21.475a3.91,3.91,0,0,0-.744,4.228,3.981,3.981,0,0,0,3.664,2.39h5.072L6.573,44.054A3.876,3.876,0,0,0,6,48.275a3.989,3.989,0,0,0,3.648,2.291h5.378L1,66.453a3.881,3.881,0,0,0-.625,4.259,4.072,4.072,0,0,0,3.689,2.326H28.091v4.293l-5.318,8.5A2.81,2.81,0,0,0,25.286,89.9H42.134a2.81,2.81,0,0,0,2.512-4.066l-5.318-8.5V73.039H63.357a4.072,4.072,0,0,0,3.689-2.326A3.881,3.881,0,0,0,66.421,66.453Z" transform="translate(812.043 310.189)" fill="url(#linear-gradient-4)"/>
      <path id="Icon_awesome-tree-15" data-name="Icon awesome-tree" d="M66.421,66.453,52.394,50.566h5.378a3.989,3.989,0,0,0,3.648-2.293,3.87,3.87,0,0,0-.576-4.223L47.127,28.092H52.2a3.978,3.978,0,0,0,3.662-2.39,3.907,3.907,0,0,0-.744-4.228L35.757.849a2.892,2.892,0,0,0-4.094,0L12.3,21.475a3.91,3.91,0,0,0-.744,4.228,3.981,3.981,0,0,0,3.664,2.39h5.072L6.573,44.054A3.876,3.876,0,0,0,6,48.275a3.989,3.989,0,0,0,3.648,2.291h5.378L1,66.453a3.881,3.881,0,0,0-.625,4.259,4.072,4.072,0,0,0,3.689,2.326H28.091v4.293l-5.318,8.5A2.81,2.81,0,0,0,25.286,89.9H42.134a2.81,2.81,0,0,0,2.512-4.066l-5.318-8.5V73.039H63.357a4.072,4.072,0,0,0,3.689-2.326A3.881,3.881,0,0,0,66.421,66.453Z" transform="translate(866.697 310.189)" fill="#6f926a"/>
    </g>
    <path id="Path_15" data-name="Path 15" d="M24.144,5.81S-15.909,45.029,7.161,54.289,33.115,77.167,62.915,75.805s68.241-9.115,75.611-32.537S117.066,18.883,95.919,5.81,24.144,5.81,24.144,5.81Z" transform="matrix(0.978, -0.208, 0.208, 0.978, 867.956, 427.117)" fill="#72a569"/>
    <g id="Group_3" data-name="Group 3" transform="translate(901.954 418.066)">
      <path id="Path_11" data-name="Path 11" d="M450.806,206.967c1.905,3.1,12.384,14.05,8.1,21.671s10.955,19.528,22.147,16.432,30.244-33.816,41.913-28.815,17.385-22.624,6.43-28.577-28.1-12.622-31.2-5.239-5.954,16.432-17.146,9.526-23.576-4.763-24.767,1.429S448.9,203.871,450.806,206.967Z" transform="translate(-450.445 -179.183)" fill="#67b1e2"/>
      <path id="Path_12" data-name="Path 12" d="M450.734,201.43c1.526,2.479,9.915,11.25,6.483,17.352s8.771,15.636,17.733,13.157,24.217-27.077,33.56-23.072,13.92-18.115,5.148-22.882-22.5-10.106-24.979-4.2-4.767,13.157-13.729,7.627-18.878-3.814-19.831,1.144S449.209,198.951,450.734,201.43Z" transform="translate(-440.162 -173.941)" fill="#7eb9e1"/>
      <path id="Path_13" data-name="Path 13" d="M450.651,195.08c1.09,1.771,7.085,8.039,4.633,12.4s6.268,11.173,12.672,9.4,17.3-19.349,23.981-16.487,9.947-12.945,3.679-16.351-16.078-7.222-17.85-3-3.406,9.4-9.811,5.45-13.49-2.725-14.171.818S449.561,193.309,450.651,195.08Z" transform="translate(-430.014 -166.813)" fill="#93c6e8"/>
    </g>
  </g>
</svg>
