<svg xmlns="http://www.w3.org/2000/svg" xmlns:xlink="http://www.w3.org/1999/xlink" width="251.359" height="268.13" viewBox="0 0 251.359 268.13">
  <defs>
    <linearGradient id="linear-gradient" x1="0.5" x2="0.5" y2="1" gradientUnits="objectBoundingBox">
      <stop offset="0" stop-color="#b68039"/>
      <stop offset="1" stop-color="#d1c091"/>
    </linearGradient>
    <linearGradient id="linear-gradient-2" x1="0.5" x2="0.5" y2="1" gradientUnits="objectBoundingBox">
      <stop offset="0" stop-color="#cab17c"/>
      <stop offset="0.961" stop-color="#927f52"/>
      <stop offset="1" stop-color="#775f29"/>
    </linearGradient>
  </defs>
  <g id="Group_77" data-name="Group 77" transform="translate(-4464.041 -1815.879)">
    <g id="Group_73" data-name="Group 73" transform="translate(4464.041 1815.879)">
      <path id="Path_1" data-name="Path 1" d="M612.04,400.5v20.787L737.176,532.442V510.086" transform="translate(-611.386 -264.312)" fill="#cbad85"/>
      <path id="Path_2" data-name="Path 2" d="M707.584,532.721l125.569-110.29V400.41L707.584,510.7Z" transform="translate(-581.794 -264.592)" fill="#b09877"/>
      <g id="Group_2" data-name="Group 2" transform="matrix(1, 0.017, -0.017, 1, 6.241, 150.922)">
        <ellipse id="Ellipse_9" data-name="Ellipse 9" cx="3.95" cy="1.975" rx="3.95" ry="1.975" transform="matrix(0.766, 0.643, -0.643, 0.766, 2.539, 0)" fill="#847055"/>
        <ellipse id="Ellipse_11" data-name="Ellipse 11" cx="3.95" cy="1.975" rx="3.95" ry="1.975" transform="matrix(0.766, 0.643, -0.643, 0.766, 25.245, 17.838)" fill="#847055"/>
        <ellipse id="Ellipse_13" data-name="Ellipse 13" cx="3.95" cy="1.975" rx="3.95" ry="1.975" transform="matrix(0.766, 0.643, -0.643, 0.766, 49.492, 38.183)" fill="#847055"/>
        <ellipse id="Ellipse_15" data-name="Ellipse 15" cx="3.95" cy="1.975" rx="3.95" ry="1.975" transform="matrix(0.766, 0.643, -0.643, 0.766, 73.74, 58.529)" fill="#847055"/>
        <ellipse id="Ellipse_17" data-name="Ellipse 17" cx="3.95" cy="1.975" rx="3.95" ry="1.975" transform="matrix(0.766, 0.643, -0.643, 0.766, 99.299, 78.76)" fill="#847055"/>
        <ellipse id="Ellipse_10" data-name="Ellipse 10" cx="5.925" cy="2.633" rx="5.925" ry="2.633" transform="matrix(0.766, 0.643, -0.643, 0.766, 10.976, 10.222)" fill="#847055"/>
        <ellipse id="Ellipse_12" data-name="Ellipse 12" cx="5.925" cy="2.633" rx="5.925" ry="2.633" transform="matrix(0.766, 0.643, -0.643, 0.766, 33.682, 28.059)" fill="#847055"/>
        <ellipse id="Ellipse_14" data-name="Ellipse 14" cx="5.925" cy="2.633" rx="5.925" ry="2.633" transform="matrix(0.766, 0.643, -0.643, 0.766, 57.929, 48.405)" fill="#847055"/>
        <ellipse id="Ellipse_16" data-name="Ellipse 16" cx="5.925" cy="2.633" rx="5.925" ry="2.633" transform="matrix(0.766, 0.643, -0.643, 0.766, 82.177, 68.751)" fill="#847055"/>
        <ellipse id="Ellipse_18" data-name="Ellipse 18" cx="5.925" cy="2.633" rx="5.925" ry="2.633" transform="matrix(0.766, 0.643, -0.643, 0.766, 107.735, 88.982)" fill="#847055"/>
      </g>
      <g id="Group_1" data-name="Group 1" transform="matrix(0.999, 0.035, -0.035, 0.999, 137.183, 144.843)">
        <ellipse id="Ellipse_20" data-name="Ellipse 20" cx="3.95" cy="1.975" rx="3.95" ry="1.975" transform="translate(0 105.42) rotate(-45)" fill="#847055"/>
        <ellipse id="Ellipse_22" data-name="Ellipse 22" cx="3.95" cy="1.975" rx="3.95" ry="1.975" transform="translate(22.382 83.038) rotate(-45)" fill="#847055"/>
        <ellipse id="Ellipse_24" data-name="Ellipse 24" cx="3.95" cy="1.975" rx="3.95" ry="1.975" transform="translate(43.447 60.656) rotate(-45)" fill="#847055"/>
        <ellipse id="Ellipse_26" data-name="Ellipse 26" cx="3.95" cy="1.975" rx="3.95" ry="1.975" transform="translate(65.829 38.274) rotate(-45)" fill="#847055"/>
        <ellipse id="Ellipse_28" data-name="Ellipse 28" cx="3.95" cy="1.975" rx="3.95" ry="1.975" transform="translate(88.211 15.892) rotate(-45)" fill="#847055"/>
        <ellipse id="Ellipse_19" data-name="Ellipse 19" cx="5.925" cy="2.633" rx="5.925" ry="2.633" transform="translate(10.918 97.906) rotate(-45)" fill="#847055"/>
        <ellipse id="Ellipse_21" data-name="Ellipse 21" cx="5.925" cy="2.633" rx="5.925" ry="2.633" transform="translate(33.3 75.524) rotate(-45)" fill="#847055"/>
        <ellipse id="Ellipse_23" data-name="Ellipse 23" cx="5.925" cy="2.633" rx="5.925" ry="2.633" transform="translate(54.365 53.142) rotate(-45)" fill="#847055"/>
        <ellipse id="Ellipse_25" data-name="Ellipse 25" cx="5.925" cy="2.633" rx="5.925" ry="2.633" transform="translate(76.747 30.76) rotate(-45)" fill="#847055"/>
        <ellipse id="Ellipse_27" data-name="Ellipse 27" cx="5.925" cy="2.633" rx="5.925" ry="2.633" transform="translate(99.129 8.379) rotate(-45)" fill="#847055"/>
      </g>
      <path id="Path_8" data-name="Path 8" d="M450.793,205.955c1.836,2.983,11.933,13.539,7.8,20.882s10.556,18.817,21.341,15.833,29.143-32.585,40.387-27.766,16.751-21.8,6.2-27.537-27.078-12.162-30.061-5.048-5.737,15.834-16.522,9.179-22.718-4.589-23.865,1.377S448.957,202.972,450.793,205.955Z" transform="translate(-357.021 -37.898)" fill="#67b1e2"/>
      <path id="Path_9" data-name="Path 9" d="M450.724,200.62c1.47,2.389,9.554,10.84,6.247,16.72s8.452,15.066,17.088,12.678,23.335-26.091,32.338-22.232,13.413-17.455,4.961-22.048-21.681-9.738-24.07-4.042-4.593,12.678-13.229,7.35-18.19-3.675-19.109,1.1S449.254,198.231,450.724,200.62Z" transform="translate(-347.113 -32.847)" fill="#7eb9e1"/>
      <path id="Path_10" data-name="Path 10" d="M450.644,194.5c1.05,1.707,6.827,7.746,4.464,11.948s6.04,10.766,12.211,9.059,16.674-18.644,23.108-15.887,9.585-12.473,3.545-15.755-15.493-6.959-17.2-2.889-3.282,9.059-9.453,5.252-13-2.626-13.655.788S449.593,192.794,450.644,194.5Z" transform="translate(-337.334 -25.978)" fill="#93c6e8"/>
      <path id="Icon_awesome-tree" data-name="Icon awesome-tree" d="M36.586,36.6,28.86,27.853h2.962a2.2,2.2,0,0,0,2.01-1.263,2.132,2.132,0,0,0-.317-2.326l-7.556-8.79h2.794a2.191,2.191,0,0,0,2.017-1.316,2.152,2.152,0,0,0-.41-2.329L19.7.467a1.593,1.593,0,0,0-2.255,0L6.775,11.829a2.154,2.154,0,0,0-.41,2.329,2.193,2.193,0,0,0,2.018,1.316h2.794L3.621,24.266A2.135,2.135,0,0,0,3.3,26.591a2.2,2.2,0,0,0,2.01,1.262H8.276L.55,36.6A2.138,2.138,0,0,0,.206,38.95a2.243,2.243,0,0,0,2.032,1.281H15.473V42.6l-2.929,4.681a1.548,1.548,0,0,0,1.384,2.24h9.28a1.548,1.548,0,0,0,1.384-2.24L21.663,42.6V40.231H34.9A2.243,2.243,0,0,0,36.93,38.95,2.138,2.138,0,0,0,36.586,36.6Z" transform="translate(106.278 70.372)" fill="#6da564"/>
      <path id="Path_14" data-name="Path 14" d="M0,0,156.617,27.791l21.121,149.947L11.386,166.72Z" transform="translate(0 136.188) rotate(-45)" fill="url(#linear-gradient)"/>
      <g id="Group_68" data-name="Group 68" transform="translate(112.209 53.18)">
        <path id="Path_42" data-name="Path 42" d="M4838.482,1943.563l-12.636,7.06,6.139,12.891s7.98,1.228-3.684,3.07" transform="translate(-4825.846 -1915.247)" fill="none" stroke="#92794e" stroke-width="1"/>
        <path id="Path_43" data-name="Path 43" d="M4838.182,1947.793s8.382,9.36,11.177,9.5,12.574,0,12.574,0l6.426,3.912,2.375,10.758-10.757,5.448" transform="translate(-4830.308 -1916.778)" fill="none" stroke="#92794e" stroke-width="1"/>
        <path id="Path_44" data-name="Path 44" d="M4870.459,1939.025l-4.19-12.163,5.029-6.985,8.523,1.677-12.574-13.133-4.332-9.221" transform="translate(-4839.255 -1899.2)" fill="none" stroke="#92794e" stroke-width="1"/>
      </g>
      <g id="Group_71" data-name="Group 71" transform="matrix(0.259, -0.966, 0.966, 0.259, 136.255, 150.772)">
        <path id="Path_42-2" data-name="Path 42" d="M12.637,0,0,7.06,6.139,19.951s7.98,1.228-3.684,3.069" transform="translate(0 28.315)" fill="none" stroke="#92794e" stroke-width="1"/>
        <path id="Path_43-2" data-name="Path 43" d="M0,0S8.382,9.361,11.177,9.5s12.574,0,12.574,0l6.426,3.912L32.552,24.17,21.795,29.618" transform="translate(7.874 31.015)" fill="none" stroke="#92794e" stroke-width="1"/>
        <path id="Path_44-2" data-name="Path 44" d="M7.543,39.826,3.353,27.662l5.03-6.985,8.522,1.677L4.331,9.221,0,0" transform="translate(23.661 0)" fill="none" stroke="#92794e" stroke-width="1"/>
      </g>
      <g id="Group_72" data-name="Group 72" transform="matrix(0.259, -0.966, 0.966, 0.259, 40.093, 129.597)">
        <path id="Path_42-3" data-name="Path 42" d="M10.456,0,0,5.841,5.079,16.508s6.6,1.016-3.048,2.54" transform="translate(0 23.429)" fill="none" stroke="#92794e" stroke-width="1"/>
        <path id="Path_43-3" data-name="Path 43" d="M0,0S6.936,7.745,9.248,7.861s10.4,0,10.4,0L24.969,11.1,26.934,20l-8.9,4.508" transform="translate(6.515 25.663)" fill="none" stroke="#92794e" stroke-width="1"/>
        <path id="Path_44-3" data-name="Path 44" d="M6.241,32.952,2.774,22.888l4.162-5.78L13.988,18.5,3.584,7.629,0,0" transform="translate(19.578 0)" fill="none" stroke="#92794e" stroke-width="1"/>
      </g>
      <g id="Group_69" data-name="Group 69" transform="matrix(0.259, 0.966, -0.966, 0.259, 176.951, 163.287)">
        <path id="Path_42-4" data-name="Path 42" d="M12.637,0,0,7.06,6.139,19.951s7.98,1.228-3.684,3.069" transform="translate(0 28.315)" fill="none" stroke="#92794e" stroke-width="1"/>
        <path id="Path_43-4" data-name="Path 43" d="M0,0S8.382,9.361,11.177,9.5s12.574,0,12.574,0l6.426,3.912L32.552,24.17,21.795,29.618" transform="translate(7.874 31.015)" fill="none" stroke="#92794e" stroke-width="1"/>
        <path id="Path_44-4" data-name="Path 44" d="M7.543,39.826,3.353,27.662l5.03-6.985,8.522,1.677L4.331,9.221,0,0" transform="translate(23.661 0)" fill="none" stroke="#92794e" stroke-width="1"/>
      </g>
      <g id="Group_70" data-name="Group 70" transform="translate(48.042 85.942)">
        <path id="Path_42-5" data-name="Path 42" d="M4848.238,1943.563l-22.392,12.51,10.877,22.844s14.141,2.176-6.527,5.439" transform="translate(-4825.846 -1893.387)" fill="none" stroke="#92794e" stroke-width="1"/>
        <path id="Path_43-5" data-name="Path 43" d="M4838.182,1947.793s14.854,16.587,19.805,16.834,22.281,0,22.281,0l11.388,6.932,4.208,19.063-19.062,9.655" transform="translate(-4824.229 -1892.833)" fill="none" stroke="#92794e" stroke-width="1"/>
        <path id="Path_44-5" data-name="Path 44" d="M4876.282,1969.772l-7.424-21.553,8.912-12.379,15.1,2.971-22.281-23.271-7.675-16.339" transform="translate(-4820.988 -1899.2)" fill="none" stroke="#92794e" stroke-width="1"/>
      </g>
      <path id="Icon_awesome-tree-2" data-name="Icon awesome-tree" d="M93.7,93.749,73.914,71.335H81.5A5.628,5.628,0,0,0,86.648,68.1a5.46,5.46,0,0,0-.812-5.957L66.483,39.631h7.156a5.612,5.612,0,0,0,5.167-3.371,5.511,5.511,0,0,0-1.05-5.964L50.443,1.2a4.08,4.08,0,0,0-5.776,0L17.352,30.3A5.516,5.516,0,0,0,16.3,36.26a5.616,5.616,0,0,0,5.169,3.371h7.156L9.273,62.149a5.468,5.468,0,0,0-.81,5.954,5.627,5.627,0,0,0,5.147,3.232H21.2L1.409,93.749a5.475,5.475,0,0,0-.882,6.009,5.744,5.744,0,0,0,5.2,3.282h33.9V109.1l-7.5,11.988a3.964,3.964,0,0,0,3.544,5.736H59.439a3.964,3.964,0,0,0,3.544-5.736l-7.5-11.988v-6.056h33.9a5.744,5.744,0,0,0,5.2-3.282A5.475,5.475,0,0,0,93.7,93.749Z" transform="translate(46.503 0.001)" fill="url(#linear-gradient-2)"/>
      <path id="Icon_awesome-tree-3" data-name="Icon awesome-tree" d="M47.093,47.117,37.148,35.852h3.813a2.829,2.829,0,0,0,2.587-1.626,2.744,2.744,0,0,0-.408-2.994L33.414,19.918h3.6a2.821,2.821,0,0,0,2.6-1.694,2.77,2.77,0,0,0-.528-3L25.352.6a2.05,2.05,0,0,0-2.9,0L8.721,15.226a2.772,2.772,0,0,0-.528,3,2.822,2.822,0,0,0,2.6,1.694h3.6L4.66,31.235a2.748,2.748,0,0,0-.407,2.993A2.828,2.828,0,0,0,6.84,35.852h3.813L.708,47.117a2.752,2.752,0,0,0-.443,3.02A2.887,2.887,0,0,0,2.88,51.786H19.917V54.83l-3.771,6.025a1.992,1.992,0,0,0,1.781,2.883H29.874a1.992,1.992,0,0,0,1.781-2.883L27.884,54.83V51.786H44.921a2.887,2.887,0,0,0,2.615-1.649A2.752,2.752,0,0,0,47.093,47.117Z" transform="translate(106.119 63.322)" fill="url(#linear-gradient-2)"/>
      <path id="Icon_awesome-tree-4" data-name="Icon awesome-tree" d="M74.156,74.193,58.5,56.455h6a4.454,4.454,0,0,0,4.073-2.56,4.321,4.321,0,0,0-.643-4.714L52.615,31.364h5.663A4.441,4.441,0,0,0,62.367,28.7a4.361,4.361,0,0,0-.831-4.72L39.921.948a3.229,3.229,0,0,0-4.571,0L13.733,23.976A4.365,4.365,0,0,0,12.9,28.7a4.444,4.444,0,0,0,4.091,2.668h5.663L7.338,49.184A4.328,4.328,0,0,0,6.7,53.9a4.454,4.454,0,0,0,4.073,2.558h6L1.115,74.193a4.333,4.333,0,0,0-.7,4.755,4.546,4.546,0,0,0,4.118,2.6H31.363v4.793l-5.937,9.487a3.137,3.137,0,0,0,2.805,4.54H47.04a3.137,3.137,0,0,0,2.805-4.54l-5.937-9.487V81.545H70.735a4.546,4.546,0,0,0,4.118-2.6A4.333,4.333,0,0,0,74.156,74.193Z" transform="translate(130.02 28.282)" fill="url(#linear-gradient-2)"/>
      <path id="Path_45" data-name="Path 45" d="M19.778,4.76S-13.032,36.887,5.866,44.472,27.127,63.213,51.538,62.1s55.9-7.467,61.938-26.654S95.9,15.469,78.574,4.76,19.778,4.76,19.778,4.76Z" transform="matrix(0.978, -0.208, 0.208, 0.978, 68.798, 156.635)" fill="#ba8b48" opacity="0.75"/>
      <path id="Path_46" data-name="Path 46" d="M15.032,3.618S-9.905,28.036,4.459,33.8s16.16,14.244,34.714,13.4S81.661,41.523,86.249,26.94,72.888,11.757,59.721,3.618,15.032,3.618,15.032,3.618Z" transform="matrix(0.978, -0.208, 0.208, 0.978, 83.778, 161.076)" fill="#b5986e" opacity="0.75"/>
    </g>
  </g>
</svg>
